.....
----------------------------------------------------------------------
Ran 5 tests in 0.002s

OK
Name               Stmts   Miss Branch BrPart  Cover   Missing
--------------------------------------------------------------
Diplomacy.py         104      5     78      0    96%   135, 144-147
TestDiplomacy.py      31      0      0      0   100%
--------------------------------------------------------------
TOTAL                135      5     78      0    97%
